…
```r
data <-
  data %>%
  rename_all(to_snake_case)
```

Now let's look at our data


```r
data
```

```
## # A tibble: 509,762 x 49
##    game_id play_id team      x     y     s     a   dis orientation   dir
##      <dbl>   <dbl> <chr> <dbl> <dbl> <dbl> <dbl> <dbl>       <dbl> <dbl>
##  1  2.02e9 2.02e13 away   73.9  34.8  1.69  1.13  0.4        82.0  177. 
##  2  2.02e9 2.02e13 away   74.7  32.6  0.42  1.35  0.01       27.6  199. 
##  3  2.02e9 2.02e13 away   74    33.2  1.22  0.59  0.31        3.01 203. 
##  4  2.02e9 2.02e13 away   71.5  27.7  0.42  0.54  0.02      360.   106. 
##  5  2.02e9 2.02e13 away   69.3  35.4  1.82  2.43  0.16       12.6  164. 
##  6  2.02e9 2.02e13 away   75.1  24    1.01  0.32  0.18      308.    95.0
##  7  2.02e9 2.02e13 away   74.1  16.6  1.11  0.83  0.02      357.   323. 
##  8  2.02e9 2.02e13 away   73.4  18.7  1.24  0.74  0.13      329.   270. 
##  9  2.02e9 2.02e13 away   56.6  26.9  0.26  1.86  0.28      345.    55.3
## 10  2.02e9 2.02e13 away   73.4  38.8  4.55  0.76  0.51       75.5  191. 
## # ... with 509,752 more rows, and 39 more variables: nfl_id <dbl>,
## #   display_name <chr>, jersey_number <dbl>, season <dbl>,
## #   yard_line <dbl>, quarter <dbl>, game_clock <time>,
## #   possession_team <chr>, down <dbl>, distance <dbl>,
## #   field_position <chr>, home_score_before_play <dbl>,
## #   visitor_score_before_play <dbl>, nfl_id_rusher <dbl>,
## #   offense_formation <chr>, offense_personnel <chr>,
## #   defenders_in_the_box <dbl>, defense_personnel <chr>,
## #   play_direction <chr>, time_handoff <dttm>, time_snap <dttm>,
…
Let's get to some Football!

So our data contains one row for every player on every play. So if we count the number of rows for each play on each game we should see 22 rows.


```r
data %>% 
  count(game_id, play_id)
```

```
## # A tibble: 23,171 x 3
##       game_id play_id     n
##         <dbl>   <dbl> <int>
##  1 2017090700 2.02e13    22
##  2 2017090700 2.02e13    22
##  3 2017090700 2.02e13    22
##  4 2017090700 2.02e13    22
##  5 2017090700 2.02e13    22
##  6 2017090700 2.02e13    22
##  7 2017090700 2.02e13    22
##  8 2017090700 2.02e13    22
##  9 2017090700 2.02e13    22
## 10 2017090700 2.02e13    22
## # ... with 23,161 more rows
```
…
Now if we remove the columns that describe players and only look at the ones that describe the play we should see 1 row for play.

Note the `distinct` function here keeps only 1 of every duplicate row.


```r
data %>% 
  select(game_id, play_id, season:yards, home_team_abbr:wind_direction) %>%
  distinct() %>%
  count(game_id, play_id)
```

```
## # A tibble: 23,171 x 3
##       game_id play_id     n
##         <dbl>   <dbl> <int>
##  1 2017090700 2.02e13     1
##  2 2017090700 2.02e13     1
##  3 2017090700 2.02e13     1
##  4 2017090700 2.02e13     1
##  5 2017090700 2.02e13     1
##  6 2017090700 2.02e13     1
##  7 2017090700 2.02e13     1
##  8 2017090700 2.02e13     1
##  9 2017090700 2.02e13     1
## 10 2017090700 2.02e13     1
## # ... with 23,161 more rows
```
…
